{
    "path_root": "",
    "settings": {
        "update_cycle_h": 12,
        "update_amount": 99
    },
    "folders": {
        "config": [
            "translation_table"
        ],
        "data": [
            "collect",
            "dev",
            "backup",
            "corrupt"
        ],
        "log": [],
        "browser": [
            "chrome",
            "firefox"
        ]
    },
    "web": {
        "level_1": {
            "official": [
                "WHO_dashboard",
                "ECDC"
            ],
            "unofficial": [
                "JHU_API"
            ]
        },
        "level_2": {
            "official": [],
            "unofficial": ["ECDC_API"]
        },
        "level_3": {
            "official": [
                "AUT_gesundheitsministerium"
            ],
            "unofficial": [
                "AUT_datenfakten"
            ]
        }
    },
    "column": {
        "level_1": [
            "crawler_name",
            "trust",
            "day",
            "country",
            "region",
            "deaths",
            "cumulative_deaths",
            "confirmed",
            "cumulative_confirmed",
            "recovered",
            "cumulative_recovered"
        ],
        "level_2": [],
        "level_3": [
            "crawler_name",
            "trust",
            "datetime",
            "age_dist_<5",
            "age_dist_5-14",
            "age_dist_15-24",
            "age_dist_25-34",
            "age_dist_35-44",
            "age_dist_45-54",
            "age_dist_55-64",
            "age_dist_>64",
            "district_cases_Amstetten",
            "district_cases_Baden",
            "district_cases_Bludenz",
            "district_cases_Braunau_am_Inn",
            "district_cases_Bregenz",
            "district_cases_Bruck_an_der_Leitha",
            "district_cases_Bruck-Mürzzuschlag",
            "district_cases_Deutschlandsberg",
            "district_cases_Dornbirn",
            "district_cases_Eferding",
            "district_cases_Eisenstadt(Stadt)",
            "district_cases_Eisenstadt-Umgebung",
            "district_cases_Feldkirch",
            "district_cases_Feldkirchen",
            "district_cases_Freistadt",
            "district_cases_Gmunden",
            "district_cases_Graz(Stadt)",
            "district_cases_Graz-Umgebung",
            "district_cases_Grieskirchen",
            "district_cases_Gröbming",
            "district_cases_Hallein",
            "district_cases_Hermagor",
            "district_cases_Hollabrunn",
            "district_cases_Horn",
            "district_cases_Imst",
            "district_cases_Innsbruck-Land",
            "district_cases_Innsbruck-Stadt",
            "district_cases_Jennersdorf",
            "district_cases_Kirchdorf_an_der_Krems",
            "district_cases_Klagenfurt_Land",
            "district_cases_Klagenfurt_Stadt",
            "district_cases_Korneuburg",
            "district_cases_Krems_an_der_Donau(Stadt)",
            "district_cases_Krems(Land)",
            "district_cases_Kufstein",
            "district_cases_Landeck",
            "district_cases_Leibnitz",
            "district_cases_Leoben",
            "district_cases_Lienz",
            "district_cases_Liezen",
            "district_cases_Lilienfeld",
            "district_cases_Linz(Stadt)",
            "district_cases_Linz-Land",
            "district_cases_Mattersburg",
            "district_cases_Melk",
            "district_cases_Mistelbach",
            "district_cases_Murau",
            "district_cases_Murtal",
            "district_cases_Neunkirchen",
            "district_cases_Neusiedl_am_See",
            "district_cases_Oberpullendorf",
            "district_cases_Oberwart",
            "district_cases_Perg",
            "district_cases_Reutte",
            "district_cases_Ried_im_Innkreis",
            "district_cases_Rohrbach",
            "district_cases_Salzburg(Stadt)",
            "district_cases_Salzburg-Umgebung",
            "district_cases_Sankt_Johann_im_Pongau",
            "district_cases_Sankt_Veit_an_der_Glan",
            "district_cases_Scheibbs",
            "district_cases_Schwaz",
            "district_cases_Spittal_an_der_Drau",
            "district_cases_Steyr(Stadt)",
            "district_cases_Steyr-Land",
            "district_cases_Tamsweg",
            "district_cases_Tulln",
            "district_cases_Urfahr-Umgebung",
            "district_cases_Villach_Land",
            "district_cases_Villach_Stadt",
            "district_cases_Voitsberg",
            "district_cases_Waidhofen_an_der_Thaya",
            "district_cases_Waidhofen_an_der_Ybbs(Stadt)",
            "district_cases_Weiz",
            "district_cases_Wels(Stadt)",
            "district_cases_Wels-Land",
            "district_cases_Wien(Stadt)",
            "district_cases_Wiener_Neustadt(Land)",
            "district_cases_Wiener_Neustadt(Stadt)",
            "district_cases_Wolfsberg",
            "district_cases_Zell_am_See",
            "district_cases_Zwettl",
            "tests_sum",
            "tests_sum_pos",
            "national_latest_cases",
            "gender_dist_männlich",
            "gender_dist_weiblich",
            "state_cases_Wien",
            "state_cases_Vorarlberg",
            "state_cases_Tirol",
            "state_cases_Steiermark",
            "state_cases_Salzburg",
            "state_cases_Oberösterreich",
            "state_cases_Niederösterreich",
            "state_cases_Kärnten",
            "state_cases_Burgenland",
            "hospitalization_Burgenland",
            "intensive_Burgenland",
            "hospitalization_Kärnten",
            "intensive_Kärnten",
            "hospitalization_Niederösterreich",
            "intensive_Niederösterreich",
            "hospitalization_Oberösterreich",
            "intensive_Oberösterreich",
            "hospitalization_Salzburg",
            "intensive_Salzburg",
            "hospitalization_Steiermark",
            "intensive_Steiermark",
            "hospitalization_Tirol",
            "intensive_Tirol",
            "hospitalization_Vorarlberg",
            "intensive_Vorarlberg",
            "hospitalization_Wien",
            "intensive_Wien",
            "hospitalization_Österreich",
            "intensive_Österreich",
            "state_deaths_Wien",
            "state_deaths_Vorarlberg",
            "state_deaths_Tirol",
            "state_deaths_Steiermark",
            "state_deaths_Salzburg",
            "state_deaths_Oberösterreich",
            "state_deaths_Niederösterreich",
            "state_deaths_Kärnten",
            "state_deaths_Burgenland",
            "state_recovered_Wien",
            "state_recovered_Vorarlberg",
            "state_recovered_Tirol",
            "state_recovered_Steiermark",
            "state_recovered_Salzburg",
            "state_recovered_Oberösterreich",
            "state_recovered_Niederösterreich",
            "state_recovered_Kärnten",
            "state_recovered_Burgenland",
            "state_ill_Wien",
            "state_ill_Vorarlberg",
            "state_ill_Tirol",
            "state_ill_Steiermark",
            "state_ill_Salzburg",
            "state_ill_Oberösterreich",
            "state_ill_Niederösterreich",
            "state_ill_Kärnten",
            "state_ill_Burgenland",
            "age_cases_<5",
            "age_cases_5-14",
            "age_cases_15-24",
            "age_cases_25-34",
            "age_cases_35-44",
            "age_cases_45-54",
            "age_cases_55-64",
            "age_cases_65-74",
            "age_cases_75-84",
            "age_cases_>84",
            "age_deaths_<5",
            "age_deaths_5-14",
            "age_deaths_15-24",
            "age_deaths_25-34",
            "age_deaths_35-44",
            "age_deaths_45-54",
            "age_deaths_55-64",
            "age_deaths_65-74",
            "age_deaths_75-84",
            "age_deaths_>84",
            "district_cases_Gänserndorf",
            "district_cases_Gmünd",
            "district_cases_Güssing",
            "district_cases_Hartberg-Fürstenfeld",
            "district_cases_Kitzbühel",
            "district_cases_Liezen_(inkl._Gröbming)",
            "district_cases_Mödling",
            "district_cases_Sankt_Pölten(Land)",
            "district_cases_Sankt_Pölten(Stadt)",
            "district_cases_Schärding",
            "district_cases_Südoststeiermark",
            "district_cases_Vöcklabruck",
            "district_cases_Völkermarkt",
            "gender_dist_deaths_weiblich",
            "gender_dist_deaths_männlich",
            "tests_Burgenland",
            "tests_Kärnten",
            "tests_Niederösterreich",
            "tests_Oberösterreich",
            "tests_Salzburg",
            "tests_Steiermark",
            "tests_Tirol",
            "tests_Vorarlberg",
            "tests_Wien",
            "intensive_utilization",
            "intensive_capacity",
            "hospitalization_utilization",
            "hospitalization_capacity"
        ]
    }
}